Exploratory Data Analysis
…
It appears that there are 3 instances with negative hourly demand. Does this actually mean that water was given back or is this an error?

sd %>% 
  group_by(CalendarDay) %>% 
  summarize(count=n())

## # A tibble: 32 x 2
##    CalendarDay count
##    <chr>       <int>
##  1 ""              2
##  2 "01"          576
##  3 "02"          576
##  4 "03"          576
##  5 "04"          576
##  6 "05"          576
##  7 "06"          576
##  8 "07"          576
##  9 "08"          574
## 10 "09"          576
## # ... with 22 more rows
…
